%YAML 1.1
%TAG !u! tag:unity3d.com,2011:
--- !u!114 &11400000
MonoBehaviour:
  m_ObjectHideFlags: 0
  m_CorrespondingSourceObject: {fileID: 0}
  m_PrefabInternal: {fileID: 0}
  m_GameObject: {fileID: 0}
  m_Enabled: 1
  m_EditorHideFlags: 0
  m_Script: {fileID: 11500000, guid: 42d72dbf34fdb0f48bed216c75db805b, type: 3}
  m_Name: level_2
  m_EditorClassIdentifier: 
  _guid: 87d992b4-d56a-47d4-8cad-0187238f3efc
  _sceneName: level_2
  _goldTimeLimit: 28.5
  _silverTimeLimit: 40
  _scene: {fileID: 102900000, guid: 520b2064b5689f0409feceadf695ac85, type: 3}
