%YAML 1.1
%TAG !u! tag:unity3d.com,2011:
--- !u!114 &11400000
MonoBehaviour:
  m_ObjectHideFlags: 0
  m_CorrespondingSourceObject: {fileID: 0}
  m_PrefabInternal: {fileID: 0}
  m_GameObject: {fileID: 0}
  m_Enabled: 1
  m_EditorHideFlags: 0
  m_Script: {fileID: 11500000, guid: 62050068954894c45b51eeee8e9bda94, type: 3}
  m_Name: settings
  m_EditorClassIdentifier: 
  _vehicles:
  - {fileID: 11400000, guid: 46d22401d241bbb4ab5209cf749ea173, type: 2}
  - {fileID: 11400000, guid: 2afea2f81fd357a42863e0044e2d2e5e, type: 2}
  _levels:
  - {fileID: 11400000, guid: b9321faae7f66714da3a656880072448, type: 2}
  - {fileID: 11400000, guid: e32c49554a78bec4db4f2dc2ac85a22c, type: 2}
  - {fileID: 11400000, guid: b2d4bd8daf77c244895838ef9721024f, type: 2}
  - {fileID: 11400000, guid: 9deca2a445cda7243bd68b94e417ad07, type: 2}
  _mainMenuSceneName: main_menu
